HTTP/1.1 200 OK
Content-Type: application/json
Date: Sun, 03 Jan 2021 09:51:27 GMT
x-amzn-RequestId: c698ec81-44ca-4c47-9692-e2f3cfeb33df
Access-Control-Allow-Origin: *
x-amz-apigw-id: YkQAyG5kFiAFQLg=
X-Amzn-Trace-Id: Root=1-5ff1939e-161401617df0283456aabcab;Sampled=0
X-Cache: Miss from cloudfront
Via: 1.1 40cca5ba9d58d2863aa64808c5af6212.cloudfront.net (CloudFront)
X-Amz-Cf-Pop: LHR62-C5
X-Amz-Cf-Id: V4OuwH9-Fhb3U3hQ3MQNAMm_LF27m4oj4TK-xqTE6Fnghm_EFc1Xng==
x-road-id: PLAYGROUND-478db4b1-e337-4d29-b873-9976626e938c
x-road-client: PLAYGROUND/COM/1234567-8/TestClient
x-road-service: PLAYGROUND/GOV/8765432-1/TestService/XRoadStatistics
x-road-request-id: fb2750d3-c4c8-42dc-ae44-a70780970d74
x-road-request-hash: hcSydZRUbqa3A3K7VSkYpLiFMw51X5EkXEk/VzfmWYqEti0YqhdqtyGGPwIW0GoPNjFLWJan3OPHZMRSWvq64g==
Content-Length: 277

{"memberClasses":[{"memberClass":"GOV","memberCount":201},{"memberClass":"COM","memberCount":546},{"memberClass":"NGO","memberCount":45},{"memberClass":"NEE","memberCount":16}],"instanceIdentifier":"EE","date":"2021-01-02","subsystems":1275,"securityServers":174,"members":808}